1.012 5.013 0.000
1.035 5.013 0.000
1.058 5.013 0.000
1.080 5.013 0.000
1.103 5.012 6.234
1.125 5.010 6.166
1.148 5.007 6.097
1.170 5.002 6.028
1.191 4.995 5.959
1.213 4.988 5.891
1.227 4.978 5.860
1.242 4.969 5.830
1.257 4.958 5.800
1.271 4.948 5.769
1.285 4.937 5.739
1.298 4.925 5.709
1.312 4.913 5.678
1.325 4.900 5.648
1.338 4.888 5.498
1.355 4.870 5.498
1.371 4.853 5.468
1.388 4.835 5.416
1.403 4.817 5.364
1.417 4.797 5.312
1.430 4.777 5.261
1.442 4.756 5.209
1.453 4.735 5.157
1.463 4.713 5.105
1.460 4.718 5.105
1.457 4.724 5.105
1.454 4.729 5.105
1.451 4.735 5.105
1.449 4.740 5.105
1.446 4.746 5.105
1.443 4.751 5.105
1.440 4.757 5.105
1.438 4.763 5.105
1.435 4.768 5.105
1.432 4.774 5.105
1.429 4.779 5.105
1.426 4.785 5.105
1.424 4.790 5.105
1.421 4.796 5.105
1.418 4.801 5.105
1.415 4.807 5.105
1.413 4.813 5.105
1.420 4.794 5.105
1.428 4.775 5.105
1.436 4.756 5.105
1.444 4.737 5.086
1.450 4.718 5.011
1.456 4.698 4.937
1.460 4.678 4.862
1.462 4.658 4.787
1.463 4.638 4.712
1.463 4.635 4.712
1.463 4.632 4.712
1.463 4.629 4.712
1.463 4.626 4.712
1.463 4.624 4.712
1.463 4.621 4.712
1.463 4.618 4.712
1.463 4.615 4.712
1.463 4.613 4.712
1.463 4.610 4.712
1.463 4.607 4.712
1.463 4.604 4.712
1.463 4.601 4.712
1.463 4.599 4.712
1.463 4.596 4.712
1.463 4.593 4.712
1.463 4.590 4.712
1.463 4.588 4.712
1.463 4.565 4.712
1.463 4.543 4.712
1.463 4.521 4.712
1.463 4.499 4.712
1.463 4.476 4.712
1.463 4.454 4.712
1.463 4.432 4.712
1.463 4.410 4.712
1.463 4.388 4.712
1.463 4.365 4.712
1.463 4.342 4.712
1.463 4.320 4.712
1.463 4.297 4.761
1.465 4.275 4.830
1.468 4.252 4.899
1.473 4.230 4.968
1.480 4.209 5.036
1.488 4.188 5.105
1.496 4.171 5.105
1.504 4.154 5.105
1.512 4.138 5.105
1.521 4.121 5.105
1.529 4.104 5.105
1.538 4.088 5.105
1.546 4.071 5.105
1.554 4.054 5.105
1.562 4.038 5.105
1.565 4.032 5.105
1.568 4.026 5.105
1.571 4.021 5.105
1.574 4.015 5.105
1.576 4.010 5.105
1.579 4.004 5.105
1.582 3.999 5.105
1.585 3.993 5.105
1.588 3.988 5.105
1.596 3.971 5.105
1.604 3.954 5.105
1.613 3.938 5.105
1.621 3.921 5.105
1.629 3.904 5.105
1.638 3.888 5.105
1.646 3.871 5.105
1.654 3.854 5.105
1.663 3.838 5.105
1.671 3.821 5.105
1.679 3.804 5.105
1.688 3.788 5.105
1.696 3.771 5.105
1.704 3.754 5.105
1.713 3.738 5.105
1.721 3.721 5.105
1.729 3.704 5.105
1.738 3.688 5.105
1.746 3.671 5.105
1.754 3.654 5.105
1.762 3.638 5.105
1.771 3.621 5.105
1.779 3.604 5.105
1.788 3.588 5.105
1.796 3.571 5.105
1.804 3.554 5.105
1.812 3.538 5.105
1.822 3.523 5.135
1.831 3.508 5.166
1.842 3.494 5.196
1.852 3.479 5.226
1.863 3.465 5.257
1.875 3.452 5.287
1.887 3.438 5.317
1.900 3.425 5.348
1.913 3.413 5.498
1.915 3.410 5.498
1.918 3.407 5.498
1.921 3.404 5.498
1.924 3.401 5.498
1.926 3.399 5.498
1.929 3.396 5.498
1.932 3.393 5.498
1.935 3.390 5.498
1.938 3.388 5.498
1.954 3.371 5.498
1.971 3.354 5.498
1.988 3.338 5.498
2.004 3.321 5.498
2.021 3.304 5.498
2.038 3.288 5.498
2.054 3.271 5.498
2.071 3.254 5.498
2.088 3.238 5.498
2.104 3.221 5.498
2.121 3.204 5.498
2.138 3.188 5.498
2.154 3.171 5.498
2.171 3.154 5.498
2.188 3.138 5.498
2.204 3.121 5.498
2.221 3.104 5.498
2.238 3.088 5.498
2.254 3.071 5.498
2.271 3.054 5.498
2.288 3.038 5.498
2.304 3.021 5.498
2.321 3.004 5.498
2.338 2.988 5.498
2.354 2.971 5.498
2.371 2.954 5.498
2.388 2.938 5.498
2.404 2.921 5.498
2.421 2.904 5.498
2.438 2.888 5.498
2.454 2.871 5.498
2.471 2.854 5.498
2.488 2.838 5.498
2.504 2.821 5.498
2.521 2.804 5.498
2.538 2.788 5.498
2.554 2.771 5.498
2.571 2.754 5.498
2.588 2.738 5.498
2.604 2.721 5.498
2.621 2.704 5.498
2.638 2.688 5.498
2.654 2.671 5.498
2.671 2.654 5.498
2.688 2.638 5.498
2.704 2.621 5.498
2.721 2.604 5.498
2.738 2.588 5.498
2.754 2.571 5.498
2.771 2.554 5.498
2.788 2.538 5.498
2.804 2.521 5.498
2.821 2.504 5.498
2.838 2.488 5.498
2.855 2.471 5.498
2.871 2.453 5.468
2.888 2.435 5.416
2.903 2.417 5.364
2.917 2.397 5.312
2.930 2.377 5.261
2.942 2.356 5.209
2.953 2.335 5.157
2.963 2.313 5.105
2.970 2.294 5.105
2.978 2.275 5.105
2.986 2.256 5.105
2.994 2.237 5.086
3.000 2.218 5.011
3.006 2.198 4.937
3.010 2.178 4.862
3.012 2.158 4.787
3.013 2.138 4.712
3.013 2.115 4.712
3.013 2.093 4.712
3.013 2.071 4.712
3.013 2.049 4.712
3.013 2.026 4.712
3.013 2.004 4.712
3.013 1.982 4.712
3.013 1.960 4.712
3.013 1.938 4.712
3.013 1.915 4.712
3.013 1.893 4.712
3.013 1.871 4.712
3.013 1.849 4.712
3.013 1.826 4.712
3.013 1.804 4.712
3.013 1.782 4.712
3.013 1.760 4.712
3.013 1.738 4.712
3.013 1.715 4.712
3.013 1.693 4.712
3.013 1.671 4.712
3.013 1.649 4.712
3.013 1.626 4.712
3.013 1.604 4.712
3.013 1.582 4.712
3.013 1.560 4.712
3.013 1.538 4.712
3.013 1.515 4.712
3.013 1.493 4.712
3.013 1.471 4.712
3.013 1.449 4.712
3.013 1.426 4.712
3.013 1.404 4.712
3.013 1.382 4.712
3.013 1.360 4.712
3.013 1.338 4.712
3.013 1.315 4.712
3.013 1.292 4.712
3.013 1.270 4.712
3.013 1.247 4.761
3.015 1.225 4.830
3.018 1.202 4.899
3.023 1.180 4.968
3.030 1.159 5.036
3.038 1.137 5.105
3.046 1.121 5.105
3.054 1.104 5.105
3.063 1.087 5.105
3.071 1.071 5.105
3.079 1.054 5.105
3.088 1.037 5.105
3.096 1.021 5.105
3.104 1.004 5.105
3.113 0.988 5.105
3.122 0.973 5.135
3.131 0.958 5.166
3.142 0.944 5.196
3.152 0.929 5.226
3.163 0.915 5.257
3.175 0.902 5.287
3.187 0.888 5.317
3.200 0.875 5.348
3.213 0.863 5.498
3.230 0.846 5.498
3.247 0.829 5.527
3.265 0.812 5.579
3.283 0.797 5.631
3.303 0.783 5.683
3.323 0.770 5.735
3.344 0.758 5.787
3.366 0.747 5.839
3.388 0.738 5.891
3.406 0.730 5.891
3.425 0.722 5.891
3.444 0.714 5.891
3.463 0.706 5.910
3.482 0.700 5.984
3.502 0.694 6.059
3.522 0.691 6.134
3.542 0.688 6.208
3.563 0.688 0.000
3.585 0.688 0.000
3.608 0.688 0.000
3.630 0.688 0.000
3.653 0.688 0.049
3.675 0.690 0.118
3.698 0.693 0.186
3.720 0.698 0.255
3.741 0.705 0.324
3.763 0.713 0.393
3.781 0.720 0.393
3.800 0.728 0.393
3.819 0.736 0.393
3.838 0.744 0.374
3.857 0.750 0.299
3.877 0.756 0.224
3.897 0.760 0.149
3.917 0.762 0.075
3.938 0.762 0.000
3.960 0.762 0.000
3.983 0.762 0.000
4.005 0.762 0.000
4.028 0.763 0.049
4.050 0.765 0.118
4.073 0.768 0.186
4.095 0.773 0.255
4.116 0.780 0.324
4.138 0.787 0.393
4.156 0.795 0.393
4.175 0.803 0.393
4.194 0.811 0.393
4.213 0.819 0.374
4.232 0.825 0.299
4.252 0.831 0.224
4.272 0.835 0.149
4.292 0.837 0.075
4.312 0.838 0.000
4.335 0.838 0.000
4.357 0.838 0.000
4.379 0.838 0.000
4.401 0.838 0.000
4.424 0.838 0.000
4.446 0.838 0.000
4.468 0.838 0.000
4.490 0.838 0.000
4.513 0.838 0.000
4.535 0.838 0.000
4.557 0.838 0.000
4.579 0.838 0.000
4.601 0.838 0.000
4.624 0.838 0.000
4.646 0.838 0.000
4.668 0.838 0.000
4.690 0.838 0.000
4.713 0.838 0.000
4.735 0.838 0.000
4.757 0.838 0.000
4.779 0.838 0.000
4.801 0.838 0.000
4.824 0.838 0.000
4.846 0.838 0.000
4.868 0.838 0.000
4.890 0.838 0.000
4.913 0.838 0.000
4.935 0.838 0.000
4.957 0.838 0.000
4.979 0.838 0.000
5.001 0.838 0.000
5.024 0.838 0.000
5.046 0.838 0.000
5.068 0.838 0.000
5.090 0.838 0.000
5.113 0.838 0.000
5.135 0.838 0.000
5.157 0.838 0.000
5.179 0.838 0.000
5.201 0.838 0.000
5.224 0.838 0.000
5.246 0.838 0.000
5.268 0.838 0.000
5.290 0.838 0.000
5.313 0.838 0.000
5.335 0.838 0.000
5.357 0.838 0.000
5.379 0.838 0.000
5.401 0.838 0.000
5.424 0.838 0.000
5.446 0.838 0.000
5.468 0.838 0.000
5.490 0.838 0.000
5.513 0.838 0.000
5.535 0.838 0.000
5.557 0.838 0.000
5.579 0.838 0.000
5.601 0.838 0.000
5.624 0.838 0.000
5.646 0.838 0.000
5.668 0.838 0.000
5.690 0.838 0.000
5.713 0.838 0.000
5.735 0.838 0.000
5.757 0.838 0.000
5.779 0.838 0.000
5.801 0.838 0.000
5.824 0.838 0.000
5.846 0.838 0.000
5.868 0.838 0.000
5.890 0.838 0.000
5.913 0.838 0.000
5.935 0.838 0.000
5.957 0.838 0.000
5.979 0.838 0.000
6.001 0.838 0.000
6.024 0.838 0.000
6.046 0.838 0.000
6.068 0.838 0.000
6.090 0.838 0.000
6.113 0.838 0.000
6.135 0.838 0.000
6.158 0.838 0.000
6.180 0.838 0.000
6.203 0.838 0.049
6.225 0.840 0.118
6.248 0.843 0.186
6.270 0.848 0.255
6.291 0.855 0.324
6.313 0.863 0.393
6.327 0.872 0.423
6.342 0.881 0.453
6.357 0.892 0.484
6.371 0.902 0.514
6.385 0.913 0.544
6.398 0.925 0.575
6.412 0.937 0.605
6.425 0.950 0.635
6.438 0.963 0.785
6.455 0.980 0.785
6.471 0.997 0.815
6.488 1.015 0.867
6.503 1.033 0.919
6.517 1.053 0.971
6.530 1.073 1.022
6.542 1.094 1.074
6.553 1.115 1.126
6.563 1.137 1.178
6.570 1.156 1.178
6.578 1.175 1.178
6.586 1.194 1.178
6.594 1.213 1.197
6.600 1.232 1.272
6.606 1.252 1.347
6.610 1.272 1.421
6.612 1.292 1.496
6.613 1.312 1.571
6.613 1.335 1.571
6.613 1.358 1.571
6.613 1.380 1.571
6.613 1.403 1.522
6.615 1.425 1.453
6.618 1.448 1.384
6.623 1.470 1.316
6.630 1.491 1.247
6.638 1.512 1.178
6.645 1.531 1.178
6.653 1.550 1.178
6.661 1.569 1.178
6.669 1.588 1.197
6.675 1.607 1.272
6.681 1.627 1.347
6.684 1.647 1.421
6.687 1.667 1.496
6.688 1.688 1.571
6.688 1.710 1.571
6.688 1.733 1.571
6.688 1.755 1.571
6.688 1.778 1.522
6.690 1.800 1.453
6.693 1.823 1.384
6.698 1.845 1.316
6.705 1.866 1.247
6.713 1.887 1.178
6.720 1.906 1.178
6.728 1.925 1.178
6.736 1.944 1.178
6.744 1.963 1.197
6.750 1.982 1.272
6.756 2.002 1.347
6.760 2.022 1.421
6.762 2.042 1.496
6.763 2.063 1.571
6.763 2.085 1.571
6.763 2.108 1.571
6.763 2.130 1.571
6.763 2.153 1.522
6.765 2.175 1.453
6.768 2.198 1.384
6.773 2.220 1.316
6.780 2.241 1.247
6.788 2.263 1.178
6.796 2.279 1.178
6.804 2.296 1.178
6.813 2.312 1.178
6.821 2.329 1.178
6.829 2.346 1.178
6.838 2.363 1.178
6.846 2.379 1.178
6.854 2.396 1.178
6.863 2.413 1.178
6.871 2.429 1.178
6.879 2.446 1.178
6.888 2.463 1.178
6.896 2.479 1.178
6.904 2.496 1.178
6.913 2.513 1.178
6.921 2.529 1.178
6.929 2.546 1.178
6.938 2.563 1.178
6.946 2.579 1.178
6.954 2.596 1.178
6.963 2.613 1.178
6.971 2.629 1.178
6.979 2.646 1.178
6.988 2.663 1.178
6.996 2.679 1.178
7.004 2.696 1.178
7.013 2.713 1.178
7.021 2.729 1.178
7.029 2.746 1.178
7.038 2.763 1.178
7.046 2.779 1.178
7.054 2.796 1.178
7.062 2.813 1.178
7.071 2.829 1.178
7.079 2.846 1.178
7.088 2.863 1.178
7.096 2.879 1.178
7.104 2.896 1.178
7.113 2.913 1.178
7.121 2.929 1.178
7.129 2.946 1.178
7.138 2.963 1.178
7.146 2.979 1.178
7.154 2.996 1.178
7.163 3.013 1.178
7.171 3.029 1.178
7.179 3.046 1.178
7.188 3.062 1.178
7.196 3.079 1.178
7.204 3.096 1.178
7.213 3.113 1.178
7.221 3.129 1.178
7.229 3.146 1.178
7.238 3.163 1.178
7.246 3.179 1.178
7.254 3.196 1.178
7.263 3.213 1.178
7.271 3.229 1.178
7.279 3.246 1.178
7.288 3.263 1.178
7.296 3.279 1.178
7.304 3.296 1.178
7.313 3.313 1.178
7.321 3.329 1.178
7.329 3.346 1.178
7.338 3.363 1.178
7.346 3.379 1.178
7.354 3.396 1.178
7.363 3.413 1.178
7.371 3.429 1.178
7.379 3.446 1.178
7.388 3.463 1.178
7.396 3.479 1.178
7.404 3.496 1.178
7.413 3.513 1.178
7.421 3.529 1.178
7.429 3.546 1.178
7.438 3.563 1.178
7.446 3.579 1.178
7.454 3.596 1.178
7.463 3.613 1.178
7.471 3.629 1.178
7.479 3.646 1.178
7.488 3.663 1.178
7.496 3.679 1.178
7.504 3.696 1.178
7.513 3.713 1.178
7.521 3.729 1.178
7.529 3.746 1.178
7.538 3.763 1.178
7.547 3.777 1.148
7.556 3.792 1.117
7.567 3.807 1.087
7.577 3.821 1.057
7.588 3.835 1.027
7.600 3.848 0.996
7.612 3.862 0.966
7.625 3.875 0.936
7.638 3.888 0.785
7.654 3.904 0.785
7.671 3.921 0.785
7.688 3.938 0.785
7.704 3.954 0.785
7.721 3.971 0.785
7.737 3.988 0.785
7.754 4.004 0.785
7.771 4.021 0.785
7.788 4.038 0.785
7.805 4.055 0.785
7.822 4.071 0.756
7.840 4.088 0.704
7.858 4.103 0.652
7.878 4.117 0.600
7.898 4.130 0.548
7.919 4.142 0.496
7.941 4.153 0.445
7.963 4.163 0.393
7.979 4.171 0.393
7.996 4.179 0.393
8.013 4.188 0.393
8.029 4.196 0.393
8.046 4.204 0.393
8.062 4.213 0.393
8.079 4.221 0.393
8.096 4.229 0.393
8.112 4.238 0.393
8.129 4.246 0.393
8.146 4.254 0.393
8.162 4.263 0.393
8.179 4.271 0.393
8.196 4.279 0.393
8.212 4.288 0.393
8.229 4.296 0.393
8.246 4.304 0.393
8.262 4.312 0.393
8.279 4.321 0.393
8.296 4.329 0.393
8.312 4.338 0.393
8.329 4.346 0.393
8.346 4.354 0.393
8.362 4.362 0.393
8.379 4.371 0.393
8.396 4.379 0.393
8.412 4.388 0.393
8.429 4.396 0.393
8.446 4.404 0.393
8.463 4.413 0.393
8.479 4.421 0.393
8.496 4.429 0.393
8.512 4.438 0.393
8.529 4.446 0.393
8.546 4.454 0.393
8.562 4.463 0.393
8.577 4.472 0.423
8.592 4.481 0.453
8.607 4.492 0.484
8.621 4.502 0.514
8.635 4.513 0.544
8.648 4.525 0.575
8.662 4.537 0.605
8.675 4.550 0.635
8.688 4.562 0.785
8.704 4.580 0.785
8.721 4.597 0.815
8.738 4.615 0.867
8.753 4.633 0.919
8.767 4.653 0.971
8.780 4.673 1.022
8.792 4.694 1.074
8.803 4.715 1.126
8.812 4.738 1.178
8.821 4.754 1.178
8.829 4.771 1.178
8.838 4.788 1.178
8.846 4.804 1.178
8.854 4.821 1.178
8.863 4.838 1.178
8.871 4.854 1.178
8.879 4.871 1.178
8.887 4.888 1.178
8.897 4.902 1.148
8.906 4.917 1.117
8.917 4.931 1.087
8.927 4.946 1.057
8.938 4.960 1.027
8.950 4.973 0.996
8.962 4.987 0.966
8.975 5.000 0.936
8.987 5.013 0.785
8.985 5.010 0.785
8.982 5.007 0.785
8.979 5.004 0.785
8.976 5.001 0.785
8.974 4.999 0.785
8.971 4.996 0.785
8.968 4.993 0.785
8.965 4.990 0.785
8.963 4.988 0.785
8.960 4.985 0.785
8.957 4.982 0.785
8.954 4.979 0.785
8.951 4.976 0.785
8.949 4.974 0.785
8.946 4.971 0.785
8.943 4.968 0.785
8.940 4.965 0.785
8.938 4.963 0.785
8.935 4.960 0.785
8.932 4.957 0.785
8.929 4.954 0.785
8.926 4.951 0.785
8.924 4.949 0.785
8.921 4.946 0.785
8.918 4.943 0.785
8.915 4.940 0.785
8.912 4.938 0.785
8.929 4.955 0.785
8.947 4.971 0.756
8.965 4.988 0.704
8.983 5.003 0.652
9.003 5.017 0.600
9.023 5.030 0.548
9.044 5.042 0.496
9.066 5.053 0.445
9.088 5.063 0.393
9.082 5.060 0.393
9.076 5.057 0.393
9.071 5.054 0.393
9.065 5.051 0.393
9.060 5.049 0.393
9.054 5.046 0.393
9.049 5.043 0.393
9.043 5.040 0.393
9.037 5.038 0.393
9.032 5.035 0.393
9.026 5.032 0.393
9.021 5.029 0.393
9.015 5.026 0.393
9.010 5.024 0.393
9.004 5.021 0.393
8.999 5.018 0.393
8.993 5.015 0.393
8.987 5.013 0.393
8.982 5.010 0.393
8.976 5.007 0.393
8.971 5.004 0.393
8.965 5.001 0.393
8.960 4.999 0.393
8.954 4.996 0.393
8.949 4.993 0.393
8.943 4.990 0.393
8.938 4.988 0.393
8.956 4.995 0.393
8.975 5.003 0.393
8.994 5.011 0.393
9.013 5.019 0.374
9.032 5.025 0.299
9.052 5.031 0.224
9.072 5.035 0.149
9.092 5.037 0.075
9.112 5.038 0.000
9.110 5.038 0.000
9.107 5.038 0.000
9.104 5.038 0.000
9.101 5.038 0.000
9.099 5.038 0.000
9.096 5.038 0.000
9.093 5.038 0.000
9.090 5.038 0.000
9.088 5.038 0.000
9.085 5.038 0.000
9.082 5.038 0.000
9.079 5.038 0.000
9.076 5.038 0.000
9.074 5.038 0.000
9.071 5.038 0.000
9.068 5.038 0.000
9.065 5.038 0.000
9.062 5.038 0.000
9.060 5.038 0.000
9.057 5.038 0.000
9.054 5.038 0.000
9.051 5.038 0.000
9.049 5.038 0.000
9.046 5.038 0.000
9.043 5.038 0.000
9.040 5.038 0.000
9.037 5.038 0.000
9.035 5.038 0.000
9.032 5.038 0.000
9.029 5.038 0.000
9.026 5.038 0.000
9.024 5.038 0.000
9.021 5.038 0.000
9.018 5.038 0.000
9.015 5.038 0.000
9.012 5.038 0.000
9.010 5.038 0.000
9.007 5.038 0.000
9.004 5.038 0.000
9.001 5.038 0.000
8.999 5.038 0.000
8.996 5.038 0.000
8.993 5.038 0.000
8.990 5.038 0.000
8.987 5.038 0.000
8.985 5.038 0.000
8.982 5.038 0.000
8.979 5.038 0.000
8.976 5.038 0.000
8.974 5.038 0.000
8.971 5.038 0.000
8.968 5.038 0.000
8.965 5.038 0.000
8.963 5.038 0.000
8.960 5.038 0.000
8.957 5.038 0.000
8.954 5.038 0.000
8.951 5.038 0.000
8.949 5.038 0.000
8.946 5.038 0.000
8.943 5.038 0.000
8.940 5.038 0.000
8.938 5.038 0.000
8.935 5.038 0.000
8.932 5.038 0.000
8.929 5.038 0.000
8.926 5.038 0.000
8.924 5.038 0.000
8.921 5.038 0.000
8.918 5.038 0.000
8.915 5.038 0.000
8.912 5.038 0.000
8.935 5.038 0.000
8.958 5.038 0.000
8.980 5.038 0.000
9.003 5.038 0.049
9.025 5.040 0.118
9.048 5.043 0.186
9.070 5.048 0.255
9.091 5.055 0.324
9.112 5.063 0.393
9.107 5.060 0.393
9.101 5.057 0.393
9.096 5.054 0.393
9.090 5.051 0.393
9.085 5.049 0.393
9.079 5.046 0.393
9.074 5.043 0.393
9.068 5.040 0.393
9.062 5.038 0.393
9.057 5.035 0.393
9.051 5.032 0.393
9.046 5.029 0.393
9.040 5.026 0.393
9.035 5.024 0.393
9.029 5.021 0.393
9.024 5.018 0.393
9.018 5.015 0.393
9.012 5.013 0.393
9.007 5.010 0.393
9.001 5.007 0.393
8.996 5.004 0.393
8.990 5.001 0.393
8.985 4.999 0.393
8.979 4.996 0.393
8.974 4.993 0.393
8.968 4.990 0.393
8.963 4.988 0.393
8.957 4.985 0.393
8.951 4.982 0.393
8.946 4.979 0.393
8.940 4.976 0.393
8.935 4.974 0.393
8.929 4.971 0.393
8.924 4.968 0.393
8.918 4.965 0.393
8.912 4.963 0.393
8.931 4.970 0.393
8.950 4.978 0.393
8.969 4.986 0.393
8.988 4.994 0.374
9.007 5.000 0.299
9.027 5.006 0.224
9.047 5.010 0.149
9.067 5.012 0.075
9.088 5.013 0.000
9.085 5.013 0.000
9.082 5.013 0.000
9.079 5.013 0.000
9.076 5.013 0.000
9.074 5.013 0.000
9.071 5.013 0.000
9.068 5.013 0.000
9.065 5.013 0.000
9.062 5.013 0.000
9.060 5.013 0.000
9.057 5.013 0.000
9.054 5.013 0.000
9.051 5.013 0.000
9.049 5.013 0.000
9.046 5.013 0.000
9.043 5.013 0.000
9.040 5.013 0.000
9.037 5.013 0.000
9.035 5.013 0.000
9.032 5.013 0.000
9.029 5.013 0.000
9.026 5.013 0.000
9.024 5.013 0.000
9.021 5.013 0.000
9.018 5.013 0.000
9.015 5.013 0.000
